<svg xmlns="http://www.w3.org/2000/svg" width="31.982" height="35.356" viewBox="0 0 31.982 35.356">
  <g id="web-design" transform="translate(-24.43 0)">
    <path id="Path_301" data-name="Path 301" d="M53.623,4.6H53.2a3.022,3.022,0,0,0-5.092-3.255L45.933,4.6H27.22a2.793,2.793,0,0,0-2.79,2.79V25.223a2.793,2.793,0,0,0,2.79,2.79H38.055l-.819,3.439H35.469a2.091,2.091,0,0,0-2.089,2.088v.436H31.2a.691.691,0,1,0,0,1.381H49.64a.691.691,0,1,0,0-1.381H47.462v-.436a2.091,2.091,0,0,0-2.089-2.088H43.606l-.819-3.439H53.623a2.793,2.793,0,0,0,2.79-2.79V7.388a2.793,2.793,0,0,0-2.79-2.79Zm-9.894,12.14c-1.08.756-3.1-.272-5.034.759-.471-2.448-.174-4.751,2.279-5.259a4.4,4.4,0,0,1,.949-.09L44.421,14A2.229,2.229,0,0,1,43.729,16.738Zm.7-7.4,1.955,1.45-1.5,1.833-1.77-1.313Zm4.835-7.225a1.641,1.641,0,1,1,2.633,1.954L47.256,9.717l-2.063-1.53ZM46.08,33.539v.436H34.762v-.436a.708.708,0,0,1,.707-.707h9.9A.708.708,0,0,1,46.08,33.539Zm-3.894-2.088h-3.53l.819-3.439h1.893Zm12.845-6.228a1.41,1.41,0,0,1-1.409,1.408H27.22a1.41,1.41,0,0,1-1.408-1.408V21.989h1.973a.691.691,0,0,0,0-1.381H25.811V7.388A1.41,1.41,0,0,1,27.22,5.979H45.009l-3.2,4.786a4.718,4.718,0,0,0-3.589,1.516c-1.2,1.4-1.415,3.612-.628,6.561a.691.691,0,0,0,1.144.321c1.786-1.706,4.009.155,6-1.457A3.617,3.617,0,0,0,45.779,13.7l6.329-7.717h1.515a1.41,1.41,0,0,1,1.408,1.408v13.22H33.309a.691.691,0,0,0,0,1.381H55.031Z" transform="translate(0 0)" fill="#34d196"/>
    <path id="Path_302" data-name="Path 302" d="M103.59,298.437a.69.69,0,1,0,.812.542A.69.69,0,0,0,103.59,298.437Z" transform="translate(-73.177 -277.816)" fill="#34d196"/>
  </g>
</svg>
